^I:\MY DOCUMENTS\BASPROG2-FINALS\BASPROG2FINAL_NISHIZAWA_H\BASPROG2FINAL_NISHIZAWA_H\DEBUG\BASPROG2FINAL_NISHIZAWA_H.OBJ|I:\MY DOCUMENTS\BASPROG2-FINALS\BASPROG2FINAL_NISHIZAWA_H\BASPROG2FINAL_NISHIZAWA_H\DEBUG\PCH.OBJ|I:\MY DOCUMENTS\BASPROG2-FINALS\BASPROG2FINAL_NISHIZAWA_H\BASPROG2FINAL_NISHIZAWA_H\DEBUG\WILDPOKEMONS.OBJ|I:\MY DOCUMENTS\BASPROG2-FINALS\BASPROG2FINAL_NISHIZAWA_H\BASPROG2FINAL_NISHIZAWA_H\DEBUG\WILDPOKEMONSLIST.OBJ
I:\MY DOCUMENTS\BASPROG2-FINALS\BASPROG2FINAL_NISHIZAWA_H\DEBUG\BASPROG2FINAL_NISHIZAWA_H.EXE
I:\MY DOCUMENTS\BASPROG2-FINALS\BASPROG2FINAL_NISHIZAWA_H\DEBUG\BASPROG2FINAL_NISHIZAWA_H.ILK
I:\MY DOCUMENTS\BASPROG2-FINALS\BASPROG2FINAL_NISHIZAWA_H\DEBUG\BASPROG2FINAL_NISHIZAWA_H.PDB
